<?xml version="1.0" encoding="utf-8"?>
<!-- Generator: Adobe Illustrator 20.1.0, SVG Export Plug-In . SVG Version: 6.00 Build 0)  -->
<svg version="1.1" id="Layer_1" xmlns="http://www.w3.org/2000/svg" xmlns:xlink="http://www.w3.org/1999/xlink" x="0px" y="0px"
	 viewBox="0 0 125.9 199.2" style="enable-background:new 0 0 125.9 199.2;" xml:space="preserve">
<style type="text/css">
	.st0{fill-rule:evenodd;clip-rule:evenodd;fill:#5E8857;}
</style>
<path class="st0" d="M81.8,158.3c0,0.6,1.8,4.7,3,6.9c1.2,2.2,1.5,3,1.5,3l0.1,10.8c0,0-4.9,0.2-8.4,1.4c-3.5,1.2-6.8,1.8-11.9,2.5
	c-5.1,0.8-8.2,1.1-12.1,2.3c-3.9,1.2-9.8,2.7-11.1,3.3c-1.4,0.6-2.2,1-2.6,1.1c-0.4,0.1-6.3,1.1-7.5,1.1c-1.2,0-1.5,0.2-2.2,0.5
	c-0.7,0.2-2.1,0.1-2.4,0.6c-0.2,0.5,0.2,1,1,1.3c0.7,0.3,1.3,0.3,1.3,0.4c-0.1,0.1,0.2,0.4,0.2,0.4s-0.8,0.7-1.7,0.8
	c-0.9,0.1-2.5,0-2.7,0.7c-0.2,0.6,0.6,1.2,0.6,1.2s-0.2,0.5,0.6,1c0.8,0.4,3,0.2,4.6,0.2s2.3,0.1,2.3,0.1s-1,0.7-0.4,1
	c0.6,0.4,2.1,0.2,3.2-0.1c1.2-0.3,4.9-1.5,6.6-1.2c1.7,0.3,9.2,0,11.3-0.6c2.1-0.6,1.9-0.8,3-0.8c1.2,0,17.4,2,25.8,2.1
	c8.5,0.1,13.7,0,14.6,0.1c0.9,0.1,1.6-0.1,2-0.9c0.4-0.8,0.7-3.6,0.9-4.5c0.2-0.9,0.5-21.7-0.8-29.5c-1.3-7.9-4-12.7-3.8-13.3
	c0.3-0.6,12.1-5.2,17-7.9c4.9-2.8,4.8-5.3,4.9-8.8c0.1-3.5,0.2-5.8,0.7-6.7c0.5-1,1-1.6,0.9-2.1c-0.1-0.5,0.1-1.1,0.1-1.1
	s5.6-5.9,5.5-12.4c-0.1-6.5-3.7-27.8-3.5-28.4c0.2-0.6,0.3-0.4,0.3-1.4c0-1-0.6-5.1-0.9-9.9c-0.3-4.8-3.1-11.2-3.9-12.8
	c-0.8-1.5-1.4-2.3-1.4-2.3S102,24.9,94,16.8C86.1,8.8,81.1,2,78,1c-3.1-1-7-1.8-10.2,0.4c-3.2,2.2-4,2.1-8,8.2
	c-4,6-14,21.1-20.6,28.9c-6.6,7.7-6.9,7.7-11.3,10.5c-4.4,2.8-13.2,8.2-16.5,9.3c-3.3,1.2-4.7,1.4-7.3,2.6c-2.5,1.2-2.9,1.9-3.6,2.9
	c-0.8,1.1-0.5,1.6-0.3,1.8c0.3,0.3,0.4,0.4,0.4,0.4l0.5,0.4c0,0-0.5,1.1-0.2,1.9C1.2,69,2.8,68.7,3,68.8c0.2,0.1,0.2,0.9,1,1.1
	c0.9,0.1,1.2,0.1,1.2,0.1s0,0.6,1.1,1C7.4,71.2,7.8,71,7.8,71s0.4,1.2,1.7,1.3c1.2,0.1,1.6-0.8,3-1.3c1.4-0.5,4.5-0.6,8.3-1.6
	c3.8-1,4.2-1.7,5.8-2.1c1.7-0.4,5.1,0.1,8-0.8c2.9-0.9,3.4-3.1,3.4-4.9c0-1.9,0.4-2.5,0.8-3c0.5-0.5,15.8-6.6,23.3-11.1
	c7.6-4.5,11.1-11.6,11.1-11.6s2,8,5.8,13.6c3.8,5.6,6.9,8.7,7.3,9.9c0.4,1.3,0.6,4.2,0.6,4.2s-0.8,6.6,0.7,11.4
	c1.5,4.8,9.8,11.5,10,12.6c0.2,1.1,0.2,2.4,0.2,3.4c-0.1,0.9,0,1.4,0,1.4s0.8,3.3-0.5,6.3c-1.3,3-4.5,8.5-4.8,9.6
	c-0.4,1.1-0.5,1.3-0.5,1.3s-0.3,0-1.2,1.8c-1,1.8-8.4,14.4-8.7,15.1c-0.4,0.7-0.4,0.7-0.4,0.7s-4,2.4-4.7,5.2
	c-0.7,2.8-1,4.1-1.6,5.4c-0.6,1.4-0.5,2-1.1,2.5c-0.5,0.5-1.3,1.1-1.3,1.1s0.3-2.6-1.2-4.1c-1.5-1.5-5.6-1.8-5.6-1.8
	s1.4-0.7,1.7-2.9c0.3-2.3-1.2-4.2-1.5-4.7c-0.3-0.4-1.6-2.6-3.1-2.9c-1.4-0.3-1.8,0.3-2.6,0.2c-0.8-0.1-2.1-0.7-4,0.4
	c-1.8,1.1-2.7,2.2-2.9,4.2c-0.3,2,0.5,3.7,0.5,3.7s-8.2,1.1-12.1,5.7c-3.8,4.6-4.4,12.8-4.2,16.2c0.2,3.4,2.9,4.9,3.9,5.3
	c1,0.3,1.1,0.5,1.1,0.5s1.6,2.7,3.5,3.9c1.9,1.2,2.9,2.7,4.2,2.6c1.3-0.1,2.2-0.3,2.7-0.3c0.5,0.1,0.7,0.1,0.7,0.1s-0.1,0.5-0.3,0.8
	c-0.2,0.3-0.6,0.7-0.2,0.4c0.4-0.4,1.1-1,1.1-1s0.8,0.5,0.9,0.7c0.1,0.2,2,3.9,2.9,4.1c0.9,0.3,2.2-1.6,2.9-1.8
	c0.7-0.2,2.5,1.6,3,1.4c0.5-0.2,0.8-0.7,1.1-0.7c0.3,0,0.1,1,0.8,1c0.8,0,0.9-0.4,1.4-0.6c0.5-0.2,2.2,0.8,3.9,0.9
	c1.7,0.1,2.3-1,2.3-2.6c0-1.6,0.4-5.3,2.2-7.2c1.8-1.9,2.6-2.2,3.9-3.1C81.3,159,81.8,158.3,81.8,158.3z"/>
</svg>
